\relax 
\@writefile{toc}{\contentsline {section}{\numberline {1}Background}{1}}
\@writefile{toc}{\contentsline {section}{\numberline {2}Default Parameters}{1}}
\@writefile{toc}{\contentsline {section}{\numberline {3}Static vs Dynamic Typing}{1}}
\@writefile{toc}{\contentsline {section}{\numberline {4}Implicit vs Explicit Typing}{2}}
\@writefile{toc}{\contentsline {section}{\numberline {5}Nominal vs Structural Typing}{2}}
\@writefile{toc}{\contentsline {section}{\numberline {6}Typing Strength}{2}}
\@writefile{toc}{\contentsline {section}{\numberline {7}Coercion}{3}}
\@writefile{toc}{\contentsline {section}{\numberline {8}Static vs Dynamic Scope}{3}}
\@writefile{toc}{\contentsline {section}{\numberline {9}Overloading Function/Operators}{4}}
\@writefile{toc}{\contentsline {section}{\numberline {10}Strict vs Non-strict Evaluation}{5}}
\@writefile{toc}{\contentsline {section}{\numberline {11}String Type}{6}}
\@writefile{toc}{\contentsline {section}{\numberline {12}Math Operators}{7}}
\@writefile{toc}{\contentsline {section}{\numberline {13}Variables}{8}}
\@writefile{toc}{\contentsline {section}{\numberline {14}Parameter Evaluation Order}{9}}
\@writefile{toc}{\contentsline {section}{\numberline {15}Short Circuit Evaluation}{9}}
\@writefile{toc}{\contentsline {section}{\numberline {16}Control Structures}{9}}
\@writefile{toc}{\contentsline {section}{\numberline {17}Error Handling}{11}}
\@writefile{toc}{\contentsline {section}{\numberline {18}Static vs Dynamic Method Binding}{12}}
\@writefile{toc}{\contentsline {section}{\numberline {19}Constructors and Destructors}{13}}
\@writefile{toc}{\contentsline {section}{\numberline {20}Anonymous Functions}{14}}
\@writefile{toc}{\contentsline {section}{\numberline {21}Higher Order Functions}{14}}
\@writefile{toc}{\contentsline {section}{\numberline {22}First Class Functions}{15}}
\@writefile{toc}{\contentsline {section}{\numberline {23}Statements vs Expressions and Functions vs Procedures}{15}}
